{
  "_meta": {
    "sources": [
      "loopback/common/models",
      "loopback/server/models",
      "../common/models",
      "./models"
    ],
    "mixins": [
      "loopback/common/mixins",
      "loopback/server/mixins",
      "../node_modules/loopback-ds-timestamp-mixin",
      "../common/mixins",
      "./mixins"
    ]
  },
  "Item": {
    "dataSource": "mysqlheru",
    "public": true
  },
  "Orderdetail": {
    "dataSource": "mysqlheru",
    "public": true
  },
  "Order": {
    "dataSource": "mysqlheru",
    "public": true
  }
}
