{
  "name": "Order",
  "base": "PersistedModel",
  "idInjection": true,
  "options": {
    "validateUpsert": true
  },
  "properties": {
    "createdate": {
      "type": "date",
      "required": true
    },
    "comments": {
      "type": "string"
    },
    "type": {
      "type": "string",
      "required": true
    },
    "businesspartner": {
      "type": "string",
      "required": true
    }
  },
  "mixins": {
    "TimeStamp": true
  },
  "validations": [],
  "relations": {
    "idorder": {
      "type": "hasMany",
      "model": "Orderdetail",
      "foreignKey": ""
    }
  },
  "acls": [],
  "methods": {}
}
